dump.vcd
$version Generated by VerilatedVcd $end
$timescale 1ps $end
 $scope module  $end
  $scope module $unit $end
   $var wire 32 *! SCR1_MTVEC_BASE_WR_BITS [31:0] $end
   $var wire 32 +! SCR1_TDU_TRIG_NUM [31:0] $end
   $var wire 32 ,! SCR1_ARCH_RST_VECTOR [31:0] $end
   $var wire 32 -! SCR1_ARCH_MTVEC_BASE [31:0] $end
   $var wire 32 .! SCR1_TCM_ADDR_MASK [31:0] $end
   $var wire 32 /! SCR1_TCM_ADDR_PATTERN [31:0] $end
   $var wire 32 0! SCR1_TIMER_ADDR_MASK [31:0] $end
   $var wire 32 1! SCR1_TIMER_ADDR_PATTERN [31:0] $end
   $var wire 32 2! SCR1_SIM_EXIT_ADDR [31:0] $end
   $var wire 32 3! SCR1_SIM_PRINT_ADDR [31:0] $end
   $var wire 32 4! SCR1_SIM_EXT_IRQ_ADDR [31:0] $end
   $var wire 32 5! SCR1_SIM_SOFT_IRQ_ADDR [31:0] $end
   $var wire 32 6! SCR1_IALU_OP_ALL_NUM_E [31:0] $end
   $var wire 32 (! SCR1_IALU_OP_WIDTH_E [31:0] $end
   $var wire 32 7! SCR1_IALU_CMD_ALL_NUM_E [31:0] $end
   $var wire 32 8! SCR1_IALU_CMD_WIDTH_E [31:0] $end
   $var wire 32 6! SCR1_SUM2_OP_ALL_NUM_E [31:0] $end
   $var wire 32 (! SCR1_SUM2_OP_WIDTH_E [31:0] $end
   $var wire 32 9! SCR1_LSU_CMD_ALL_NUM_E [31:0] $end
   $var wire 32 :! SCR1_LSU_CMD_WIDTH_E [31:0] $end
   $var wire 32 6! SCR1_CSR_OP_ALL_NUM_E [31:0] $end
   $var wire 32 (! SCR1_CSR_OP_WIDTH_E [31:0] $end
   $var wire 32 :! SCR1_CSR_CMD_ALL_NUM_E [31:0] $end
   $var wire 32 6! SCR1_CSR_CMD_WIDTH_E [31:0] $end
   $var wire 32 ;! SCR1_RD_WB_ALL_NUM_E [31:0] $end
   $var wire 32 <! SCR1_RD_WB_WIDTH_E [31:0] $end
   $var wire 32 8! SCR1_GPR_FIELD_WIDTH [31:0] $end
   $var wire 32 =! SCR1_CSR_ADDR_WIDTH [31:0] $end
   $var wire 32 >! SCR1_CSR_MTVEC_BASE_ZERO_BITS [31:0] $end
   $var wire 32 *! SCR1_CSR_MTVEC_BASE_VAL_BITS [31:0] $end
   $var wire 26 ?! SCR1_CSR_MTVEC_BASE_WR_RST_VAL [31:6] $end
   $var wire 32 @! SCR1_CSR_MTVEC_BASE_RO_BITS [31:0] $end
   $var wire 32 A! SCR1_EXC_CODE_WIDTH_E [31:0] $end
   $var wire 4 B! SCR1_EXC_CODE_IRQ_M_SOFTWARE [3:0] $end
   $var wire 4 C! SCR1_EXC_CODE_IRQ_M_TIMER [3:0] $end
   $var wire 4 D! SCR1_EXC_CODE_IRQ_M_EXTERNAL [3:0] $end
   $var wire 4 E! SCR1_EXC_CODE_RESET [3:0] $end
  $upscope $end
  $var wire 1 # clk $end
  $var wire 1 $ rst_n $end
  $var wire 1 % exu2ialu_rvm_cmd_vd_i $end
  $var wire 1 & ialu2exu_rvm_res_rdy_o $end
  $var wire 32 ' exu2ialu_main_op1_i [31:0] $end
  $var wire 32 ( exu2ialu_main_op2_i [31:0] $end
  $var wire 5 ) exu2ialu_cmd_i [4:0] $end
  $var wire 32 * ialu2exu_main_res_o [31:0] $end
  $var wire 1 + ialu2exu_cmp_res_o $end
  $var wire 32 , exu2ialu_addr_op1_i [31:0] $end
  $var wire 32 - exu2ialu_addr_op2_i [31:0] $end
  $var wire 32 . ialu2exu_addr_res_o [31:0] $end
  $scope module scr1_pipe_ialu $end
   $var wire 1 / clk $end
   $var wire 1 0 rst_n $end
   $var wire 1 1 exu2ialu_rvm_cmd_vd_i $end
   $var wire 1 2 ialu2exu_rvm_res_rdy_o $end
   $var wire 32 3 exu2ialu_main_op1_i [31:0] $end
   $var wire 32 4 exu2ialu_main_op2_i [31:0] $end
   $var wire 5 5 exu2ialu_cmd_i [4:0] $end
   $var wire 32 6 ialu2exu_main_res_o [31:0] $end
   $var wire 1 7 ialu2exu_cmp_res_o $end
   $var wire 32 8 exu2ialu_addr_op1_i [31:0] $end
   $var wire 32 9 exu2ialu_addr_op2_i [31:0] $end
   $var wire 32 : ialu2exu_addr_res_o [31:0] $end
   $var wire 32 %! SCR1_MUL_WIDTH [31:0] $end
   $var wire 32 &! SCR1_MUL_RES_WIDTH [31:0] $end
   $var wire 32 '! SCR1_MDU_SUM_WIDTH [31:0] $end
   $var wire 32 (! SCR1_DIV_WIDTH [31:0] $end
   $var wire 32 )! SCR1_DIV_CNT_INIT [31:0] $end
   $var wire 33 ; main_sum_res [32:0] $end
   $scope module main_sum_flags $end
    $var wire 1 = z $end
    $var wire 1 > s $end
    $var wire 1 ? o $end
    $var wire 1 @ c $end
   $upscope $end
   $var wire 1 A main_sum_pos_ovflw $end
   $var wire 1 B main_sum_neg_ovflw $end
   $var wire 1 C main_ops_diff_sgn $end
   $var wire 1 D main_ops_non_zero $end
   $var wire 1 E ialu_cmd_shft $end
   $var wire 32 F shft_op1 [31:0] $end
   $var wire 5 G shft_op2 [4:0] $end
   $var wire 2 H shft_cmd [1:0] $end
   $var wire 32 I shft_res [31:0] $end
   $var wire 1 J mdu_cmd_is_iter $end
   $var wire 1 K mdu_iter_req $end
   $var wire 1 L mdu_iter_rdy $end
   $var wire 1 M mdu_corr_req $end
   $var wire 1 N div_corr_req $end
   $var wire 1 O rem_corr_req $end
   $var wire 2 P mdu_fsm_ff [1:0] $end
   $var wire 2 Q mdu_fsm_next [1:0] $end
   $var wire 1 R mdu_fsm_idle $end
   $var wire 1 S mdu_fsm_corr $end
   $var wire 2 T mdu_cmd [1:0] $end
   $var wire 1 U mdu_cmd_mul $end
   $var wire 1 V mdu_cmd_div $end
   $var wire 2 W mul_cmd [1:0] $end
   $var wire 1 X mul_cmd_hi $end
   $var wire 2 Y div_cmd [1:0] $end
   $var wire 1 Z div_cmd_div $end
   $var wire 1 [ div_cmd_rem $end
   $var wire 1 \ mul_op1_is_sgn $end
   $var wire 1 ] mul_op2_is_sgn $end
   $var wire 1 ^ mul_op1_sgn $end
   $var wire 1 _ mul_op2_sgn $end
   $var wire 33 ` mul_op1 [32:0] $end
   $var wire 33 b mul_op2 [32:0] $end
   $var wire 64 d mul_res [63:0] $end
   $var wire 1 f div_ops_are_sgn $end
   $var wire 1 g div_op1_is_neg $end
   $var wire 1 h div_op2_is_neg $end
   $var wire 1 i div_res_rem_c $end
   $var wire 32 j div_res_rem [31:0] $end
   $var wire 32 k div_res_quo [31:0] $end
   $var wire 1 l div_quo_bit $end
   $var wire 1 m div_dvdnd_lo_upd $end
   $var wire 32 n div_dvdnd_lo_ff [31:0] $end
   $var wire 32 o div_dvdnd_lo_next [31:0] $end
   $var wire 1 p mdu_sum_sub $end
   $var wire 33 q mdu_sum_op1 [32:0] $end
   $var wire 33 s mdu_sum_op2 [32:0] $end
   $var wire 33 u mdu_sum_res [32:0] $end
   $var wire 1 w mdu_iter_cnt_en $end
   $var wire 32 x mdu_iter_cnt [31:0] $end
   $var wire 32 y mdu_iter_cnt_next [31:0] $end
   $var wire 1 z mdu_res_upd $end
   $var wire 1 { mdu_res_c_ff $end
   $var wire 1 | mdu_res_c_next $end
   $var wire 32 } mdu_res_hi_ff [31:0] $end
   $var wire 32 ~ mdu_res_hi_next [31:0] $end
   $var wire 32 !! mdu_res_lo_ff [31:0] $end
   $var wire 32 "! mdu_res_lo_next [31:0] $end
   $scope module unnamedblk1 $end
    $var wire 1 #! sgn $end
    $var wire 1 $! inv $end
   $upscope $end
  $upscope $end
 $upscope $end
$enddefinitions $end


#0
0#
0$
0%
1&
b01111111111111111111111111111111 '
b01111111111111111111111111111111 (
b00100 )
b11111111111111111111111111111110 *
0+
b00000000000000000000000000000000 ,
b00000000000000000000000000000000 -
b00000000000000000000000000000000 .
0/
00
01
12
b01111111111111111111111111111111 3
b01111111111111111111111111111111 4
b00100 5
b11111111111111111111111111111110 6
07
b00000000000000000000000000000000 8
b00000000000000000000000000000000 9
b00000000000000000000000000000000 :
b011111111111111111111111111111110 ;
0=
1>
0?
0@
0A
0B
0C
1D
0E
b01111111111111111111111111111111 F
b11111 G
b00 H
b10000000000000000000000000000000 I
0J
0K
0L
0M
0N
0O
b00 P
b00 Q
1R
0S
b00 T
0U
0V
b00 W
0X
b00 Y
1Z
0[
1\
1]
0^
0_
b000000000000000000000000000000000 `
b000000000000000000000000000000000 b
b0000000000000000000000000000000000000000000000000000000000000000 d
1f
0g
0h
0i
b00000000000000000000000000000000 j
b00000000000000000000000000000000 k
0l
0m
b00000000000000000000000000000000 n
b00000000000000000000000000000000 o
0p
b000000000000000000000000000000000 q
b000000000000000000000000000000000 s
b000000000000000000000000000000000 u
0w
b00000000000000000000000000000000 x
b00000000000000000000000000000000 y
0z
0{
0|
b00000000000000000000000000000000 }
b00000000000000000000000000000000 ~
b00000000000000000000000000000000 !!
b00000000000000000000000000000000 "!
0#!
0$!
b00000000000000000000000000100000 %!
b00000000000000000000000001000000 &!
b00000000000000000000000000100001 '!
b00000000000000000000000000000001 (!
b01000000000000000000000000000000 )!
b00000000000000000000000000011010 *!
b00000000000000000000000000000010 +!
b00000000000000000000001000000000 ,!
b00000000000000000000000111000000 -!
b11111111111111110000000000000000 .!
b00000000010010000000000000000000 /!
b11111111111111111111111111100000 0!
b00000000010010010000000000000000 1!
b00000000000000000000000011111000 2!
b11110000000000000000000000000000 3!
b11110000000000000000000100000000 4!
b11110000000000000000001000000000 5!
b00000000000000000000000000000010 6!
b00000000000000000000000000010111 7!
b00000000000000000000000000000101 8!
b00000000000000000000000000001001 9!
b00000000000000000000000000000100 :!
b00000000000000000000000000000111 ;!
b00000000000000000000000000000011 <!
b00000000000000000000000000001100 =!
b00000000000000000000000000000110 >!
b00000000000000000000000111 ?!
b00000000000000000000000000000000 @!
b00000000000000000000000000000100 A!
b0011 B!
b0111 C!
b1011 D!
b0000 E!
#10000
#10001
b00000000000000000000000000000001 (
b10000000000000000000000000000000 *
b00000000000000000000000000000001 4
b10000000000000000000000000000000 6
b010000000000000000000000000000000 ;
b00001 G
b11111111111111111111111111111110 I
#20001
#20002
b01011010101111100001011111011001 '
b01110100000111000011111010101000 (
b11001110110110100101011010000001 *
b01011010101111100001011111011001 3
b01110100000111000011111010101000 4
b11001110110110100101011010000001 6
b011001110110110100101011010000001 ;
b01011010101111100001011111011001 F
b01000 G
b10111110000101111101100100000000 I
#30002
#30003
b10000000000000000000000000000000 '
b10000000000000000000000000000000 (
b00000000000000000000000000000000 *
b10000000000000000000000000000000 3
b10000000000000000000000000000000 4
b00000000000000000000000000000000 6
b100000000000000000000000000000000 ;
1=
0>
1@
b10000000000000000000000000000000 F
b00000 G
b10000000000000000000000000000000 I
1^
1_
1g
1h
#40003
#40004
b11111111111111111111111111111111 '
b11111111111111111111111111111111 (
b11111111111111111111111111111110 *
b11111111111111111111111111111111 3
b11111111111111111111111111111111 4
b11111111111111111111111111111110 6
b111111111111111111111111111111110 ;
0=
1>
b11111111111111111111111111111111 F
b11111 G
#50004
#50005
b10001010000110110010110000111101 '
b10111111101000010001111010101111 (
b01001001101111000100101011101100 *
b10001010000110110010110000111101 3
b10111111101000010001111010101111 4
b01001001101111000100101011101100 6
b101001001101111000100101011101100 ;
0>
b10001010000110110010110000111101 F
b01111 G
b10010110000111101000000000000000 I
#60005
#60006
b01111111111111111111111111111111 '
b10000000000000000000000000000000 (
b11111111111111111111111111111111 *
b01111111111111111111111111111111 3
b10000000000000000000000000000000 4
b11111111111111111111111111111111 6
b011111111111111111111111111111111 ;
1>
1?
0@
1A
1C
b01111111111111111111111111111111 F
b00000 G
b01111111111111111111111111111111 I
1N
0^
0g
#70006
#70007
b11111111111111111111111111111111 (
b01111111111111111111111111111110 *
b11111111111111111111111111111111 4
b01111111111111111111111111111110 6
b101111111111111111111111111111110 ;
0>
0?
1@
0A
b11111 G
b10000000000000000000000000000000 I
#80007
#80008
b00000000000000000000000000000001 '
b00000000000000000000000000000000 *
b00000000000000000000000000000001 3
b00000000000000000000000000000000 6
b100000000000000000000000000000000 ;
1=
b00000000000000000000000000000001 F
#90008
#90009
b00000000000000000000000000000111 '
b11111111111111111111111111111001 (
b00000000000000000000000000000111 3
b11111111111111111111111111111001 4
b00000000000000000000000000000111 F
b11001 G
b00001110000000000000000000000000 I
#100009
#100010
b11111111111111111111111111110000 '
b00000000000000000000000000010000 (
b11111111111111111111111111110000 3
b00000000000000000000000000010000 4
1?
1B
b11111111111111111111111111110000 F
b10000 G
b11111111111100000000000000000000 I
1^
0_
1g
0h
#110010
#110011
b01000000000000000000000000000000 '
b10000000000000000000000000000000 (
b11000000000000000000000000000000 *
b01000000000000000000000000000000 3
b10000000000000000000000000000000 4
b11000000000000000000000000000000 6
b011000000000000000000000000000000 ;
0=
1>
0@
1A
0B
b01000000000000000000000000000000 F
b00000 G
b01000000000000000000000000000000 I
0^
1_
0g
1h
#120011
#120012
b01111111111111111111111111111111 '
b01111111111111111111111111111111 (
b00101 )
b00000000000000000000000000000000 *
b01111111111111111111111111111111 3
b01111111111111111111111111111111 4
b00101 5
b00000000000000000000000000000000 6
b000000000000000000000000000000000 ;
1=
0>
0?
0A
0C
b01111111111111111111111111111111 F
b11111 G
b10000000000000000000000000000000 I
0N
0_
0h
#130012
#130013
b00000000000000000000000000000001 '
b10000000000000000000000000000010 *
b00000000000000000000000000000001 3
b10000000000000000000000000000010 6
b110000000000000000000000000000010 ;
0=
1>
1@
b00000000000000000000000000000001 F
#140013
#140014
b01111111111111111111111111111111 '
b00000000000000000000000000000001 (
b01111111111111111111111111111110 *
b01111111111111111111111111111111 3
b00000000000000000000000000000001 4
b01111111111111111111111111111110 6
b001111111111111111111111111111110 ;
0>
0@
b01111111111111111111111111111111 F
b00001 G
b11111111111111111111111111111110 I
#150014
#150015
b10000000000000000000000000000000 '
b10000000000000000000000000000000 (
b00000000000000000000000000000000 *
b10000000000000000000000000000000 3
b10000000000000000000000000000000 4
b00000000000000000000000000000000 6
b000000000000000000000000000000000 ;
1=
b10000000000000000000000000000000 F
b00000 G
b10000000000000000000000000000000 I
1^
1_
1g
1h
#160015
#160016
b11111111111111111111111111111111 '
b11111111111111111111111111111111 (
b11111111111111111111111111111111 3
b11111111111111111111111111111111 4
b11111111111111111111111111111111 F
b11111 G
#170016
#170017
b10000000000000000000000000000000 '
b10000000000000000000000000000001 *
b10000000000000000000000000000000 3
b10000000000000000000000000000001 6
b110000000000000000000000000000001 ;
0=
1>
1@
b10000000000000000000000000000000 F
b00000000000000000000000000000000 I
#180017
#180018
b11111111111111111111111111111111 '
b10000000000000000000000000000000 (
b01111111111111111111111111111111 *
b11111111111111111111111111111111 3
b10000000000000000000000000000000 4
b01111111111111111111111111111111 6
b001111111111111111111111111111111 ;
0>
0@
b11111111111111111111111111111111 F
b00000 G
b11111111111111111111111111111111 I
#190018
#190019
b10000000000000000000000000000000 '
b01111111111111111111111111111111 (
b00000000000000000000000000000001 *
b10000000000000000000000000000000 3
b01111111111111111111111111111111 4
b00000000000000000000000000000001 6
b000000000000000000000000000000001 ;
1?
1B
1C
b10000000000000000000000000000000 F
b11111 G
b00000000000000000000000000000000 I
1N
0_
0h
#200019
#200020
b11111111111111111111111111111111 '
b10000000000000000000000000000000 *
b11111111111111111111111111111111 3
b10000000000000000000000000000000 6
b010000000000000000000000000000000 ;
1>
0?
0B
b11111111111111111111111111111111 F
b10000000000000000000000000000000 I
#210020
#210021
b10000000000000000000000000000000 '
b00000000000000000000000000000001 (
b01111111111111111111111111111111 *
b10000000000000000000000000000000 3
b00000000000000000000000000000001 4
b01111111111111111111111111111111 6
b001111111111111111111111111111111 ;
0>
1?
1B
b10000000000000000000000000000000 F
b00001 G
b00000000000000000000000000000000 I
